…
In this case, the `per_year` result is uninteresting because the dataset
only pertained to flights that occurred in 2013 to begin with. But if we
had more than one year, then we would expect the results to have shown
up here.

`summarize()` is not the only function that works well with
`group_by()`. In fact, we can use it on any function we have learned so
far. For example, here is an example with `filter()`.

    flights %>% 
      group_by(dest) %>%
      filter(n() > 200)
    
    ## # A tibble: 336,053 x 19
    ## # Groups:   dest [89]
    ##     year month   day dep_time sched_dep_time dep_delay arr_time
    ##    <int> <int> <int>    <int>          <int>     <dbl>    <int>
    ##  1  2013     1     1      517            515         2      830
    ##  2  2013     1     1      533            529         4      850
    ##  3  2013     1     1      542            540         2      923
    ##  4  2013     1     1      544            545        -1     1004
    ##  5  2013     1     1      554            600        -6      812
    ##  6  2013     1     1      554            558        -4      740
    ##  7  2013     1     1      555            600        -5      913
    ##  8  2013     1     1      557            600        -3      709
    ##  9  2013     1     1      557            600        -3      838
    ## 10  2013     1     1      558            600        -2      753
    ## # … with 336,043 more rows, and 12 more variables: sched_arr_time <int>,
    ## #   arr_delay <dbl>, carrier <chr>, flight <int>, tailnum <chr>,
    ## #   origin <chr>, dest <chr>, air_time <dbl>, distance <dbl>, hour <dbl>,
    ## #   minute <dbl>, time_hour <dttm>
…
